{
    "doc_id": "0002c66140e6cc31",
    "entities": [
        {
            "id": "032b9bff40c46045",
            "score": 0.0,
            "surface_form": "PeopleSoft",
            "title": "PeopleSoft",
            "type": "WIKI"
        },
        {
            "id": "9eed3ca7f2a0c60a",
            "score": 0.0,
            "surface_form": "Kuali Financial",
            "title": "Kuali Financial",
            "type": "NAKED"
        },
        {
            "id": "42cc2a8f4a39bf50",
            "score": 0.0,
            "surface_form": "Kuali Financial Systems",
            "title": "Kuali_Foundation",
            "type": "WIKI"
        },
        {
            "id": "7cb02f30694ba581",
            "score": 0.0,
            "surface_form": "PeopleSoft",
            "title": "PeopleSoft",
            "type": "NAKED"
        }
    ]
}
